Gov 50 Final Project: GDP Growth and Democratization in Kyrgyzstan
…
The following section contains a multiple regression examining the relationship between annual GDP growth and LDI, while controlling for the mass mobilization index (an important possible confounder, since Kyrgyzstan has experienced three coups in its history due to civilian demands for greater democratization). Mass mobilization for democratization could be a potential confounder given that it could positively affect my explanatory variable—GDP growth—by increasing GDP due to greater demands for liberalization; it could also affect my outcome variable—LDI—by leading to greater liberal concessions by governments.

#Joining & Cleaning New Data
usaid <- read_csv("usaid.csv")
massmob <- read_csv("massmobilization.csv")
gini <- read_csv("kyrgyz_gini.csv")

kyrgyz <- kyrgyz |>
  left_join(usaid) |>
  left_join(massmob) |>
  left_join(gini)
kyrgyz

# A tibble: 94 × 16
    Year Liberal Dem…¹ Liber…² Liber…³ GDP g…⁴ GDP G…⁵ Incom…⁶ Incom…⁷
   <dbl>         <dbl>   <dbl>   <dbl>   <dbl>   <dbl> <chr>   <chr>  
 1  1991         0.164   0.135   0.183   -7.94   -7.94 <NA>    <NA>   
 2  1992         0.205   0.178   0.234  -13.8   -13.8  LMIC    Lower …
 3  1993         0.201   0.169   0.224  -15.5   -15.5  LMIC    Lower …
 4  1994         0.192   0.165   0.216  -20.1   -20.1  LMIC    Lower …
 5  1995         0.174   0.149   0.198   -5.42   -5.42 LMIC    Lower …
 6  1996         0.171   0.144   0.192    7.08    7.08 LMIC    Lower …
 7  1997         0.164   0.14    0.185    9.92    9.92 LMIC    Lower …
 8  1998         0.17    0.143   0.19     2.12    2.12 LMIC    Lower …
 9  1999         0.168   0.144   0.189    3.66    3.66 LMIC    Lower …
10  2000         0.165   0.144   0.189    5.44    5.44 LMIC    Lower …
# … with 84 more rows, 8 more variables: `Transaction Type ID` <dbl>,
#   `Transaction Type Name` <chr>, current_amount <dbl>,
#   constant_amount <dbl>, `Mass mobilization` <dbl>,
#   `Mass mobilization  CI (Low)` <dbl>,
#   `Mass mobilization  CI (High)` <dbl>, `Gini Coefficient` <dbl>,
#   and abbreviated variable names ¹​`Liberal Democracy Index`,
#   ²​`Liberal Democracy Index CI (Low)`, …

kyrgyz <- kyrgyz |>
  mutate(`US Assistance` = `constant_amount`,
         `Mass Mobilization Index` = `Mass mobilization`)

#Multiple Regression with Mass Mobilization
kyrgyz

# A tibble: 94 × 18
    Year Liberal Dem…¹ Liber…² Liber…³ GDP g…⁴ GDP G…⁵ Incom…⁶ Incom…⁷
   <dbl>         <dbl>   <dbl>   <dbl>   <dbl>   <dbl> <chr>   <chr>  
 1  1991         0.164   0.135   0.183   -7.94   -7.94 <NA>    <NA>   
 2  1992         0.205   0.178   0.234  -13.8   -13.8  LMIC    Lower …
 3  1993         0.201   0.169   0.224  -15.5   -15.5  LMIC    Lower …
 4  1994         0.192   0.165   0.216  -20.1   -20.1  LMIC    Lower …
 5  1995         0.174   0.149   0.198   -5.42   -5.42 LMIC    Lower …
 6  1996         0.171   0.144   0.192    7.08    7.08 LMIC    Lower …
 7  1997         0.164   0.14    0.185    9.92    9.92 LMIC    Lower …
 8  1998         0.17    0.143   0.19     2.12    2.12 LMIC    Lower …
 9  1999         0.168   0.144   0.189    3.66    3.66 LMIC    Lower …
10  2000         0.165   0.144   0.189    5.44    5.44 LMIC    Lower …
# … with 84 more rows, 10 more variables:
#   `Transaction Type ID` <dbl>, `Transaction Type Name` <chr>,
#   current_amount <dbl>, constant_amount <dbl>,
#   `Mass mobilization` <dbl>, `Mass mobilization  CI (Low)` <dbl>,
#   `Mass mobilization  CI (High)` <dbl>, `Gini Coefficient` <dbl>,
#   `US Assistance` <dbl>, `Mass Mobilization Index` <dbl>, and
#   abbreviated variable names ¹​`Liberal Democracy Index`, …
…
